<?xml version="1.0" encoding="utf-8"?>
<!-- Generator: Adobe Illustrator 23.0.3, SVG Export Plug-In . SVG Version: 6.00 Build 0)  -->
<svg version="1.1" id="Layer_1" xmlns="http://www.w3.org/2000/svg" xmlns:xlink="http://www.w3.org/1999/xlink" x="0px" y="0px"
	 viewBox="0 0 75 75" style="enable-background:new 0 0 75 75;" xml:space="preserve">
<style type="text/css">
	.st0{fill-rule:evenodd;clip-rule:evenodd;fill:#4ED6FF;}
	.st1{fill:none;stroke:#FFFFFF;}
	.st2{fill-rule:evenodd;clip-rule:evenodd;fill:#FFFFFF;stroke:#FFFFFF;}
</style>
<title>Group 8</title>
<desc>Created with Sketch.</desc>
<g id="Group-8" transform="translate(311.000000, 1320.000000)">
	<path id="Rectangle" class="st0" d="M-273.5-1320L-273.5-1320c20.7,0,37.5,16.8,37.5,37.5l0,0c0,20.7-16.8,37.5-37.5,37.5l0,0
		c-20.7,0-37.5-16.8-37.5-37.5l0,0C-311-1303.2-294.2-1320-273.5-1320z"/>
	<g id="Group-3" transform="translate(15.000000, 15.000000)">
		<g id="Group-5">
			<g id="Group-4">
				<polygon id="Path-9" class="st1" points="-304.4,-1313.4 -272.6,-1313.4 -272.6,-1281.6 -304.4,-1281.6 				"/>
				<path id="Path-10" class="st1" d="M-304.4-1313.4l31.8,31.8"/>
				<path id="Path-11" class="st1" d="M-272.6-1313.4l-31.8,31.8"/>
				<rect x="-310.5" y="-1319.5" class="st2" width="12.2" height="12.2"/>
				<rect x="-278.7" y="-1319.5" class="st2" width="12.2" height="12.2"/>
				<rect x="-310.5" y="-1287.7" class="st2" width="12.2" height="12.2"/>
				<rect x="-278.7" y="-1287.7" class="st2" width="12.2" height="12.2"/>
			</g>
			<rect x="-294.8" y="-1303.8" class="st2" width="12.2" height="12.2"/>
		</g>
	</g>
</g>
</svg>
