<?xml version="1.0" encoding="UTF-8"?>
<svg width="75px" height="75px" viewBox="0 0 75 75" version="1.1" xmlns="http://www.w3.org/2000/svg" xmlns:xlink="http://www.w3.org/1999/xlink">
    <!-- Generator: Sketch 55.1 (78136) - https://sketchapp.com -->
    <title>Group 10</title>
    <desc>Created with Sketch.</desc>
    <g id="Page-1" stroke="none" stroke-width="1" fill="none" fill-rule="evenodd">
        <g id="Design-1" transform="translate(-896.000000, -1617.000000)">
            <g id="Group-10" transform="translate(896.000000, 1617.000000)">
                <rect id="Rectangle" fill="#F7A7A7" x="0" y="0" width="75" height="75" rx="37.5"></rect>
                <g id="Group-7" transform="translate(18.000000, 22.000000)">
                    <path d="M11.6499047,26.1112871 L5.27008699,31 L5.27008699,26.1112871 L5,26.1112871 C2.23857625,26.1112871 3.38176876e-16,23.8727108 0,21.1112871 L0,5 C-3.38176876e-16,2.23857625 2.23857625,-1.10515037e-13 5,-1.10134124e-13 L34,-1.10134124e-13 C36.7614237,-1.11529568e-13 39,2.23857625 39,5 L39,21.1112871 C39,23.8727108 36.7614237,26.1112871 34,26.1112871 L11.6499047,26.1112871 Z" id="Combined-Shape" stroke="#FFFFFF" stroke-width="2"></path>
                    <g id="Group-6" transform="translate(9.000000, 11.000000)" fill="#FFFFFF">
                        <circle id="Oval" cx="2" cy="2" r="2"></circle>
                        <circle id="Oval" cx="11" cy="2" r="2"></circle>
                        <circle id="Oval" cx="20" cy="2" r="2"></circle>
                    </g>
                </g>
            </g>
        </g>
    </g>
</svg>