<?xml version="1.0" encoding="utf-8"?>
<!-- Generator: Adobe Illustrator 23.0.3, SVG Export Plug-In . SVG Version: 6.00 Build 0)  -->
<svg version="1.1" id="Layer_1" xmlns="http://www.w3.org/2000/svg" xmlns:xlink="http://www.w3.org/1999/xlink" x="0px" y="0px"
	 viewBox="0 0 50 50" style="enable-background:new 0 0 50 50;" xml:space="preserve">
<style type="text/css">
	.st0{fill-rule:evenodd;clip-rule:evenodd;fill:#007AAA;}
	.st1{fill:#FFFFFF;}
</style>
<path id="Rectangle" class="st0" d="M25,0L25,0c13.81,0,25,11.19,25,25l0,0c0,13.81-11.19,25-25,25l0,0C11.19,50,0,38.81,0,25l0,0
	C0,11.19,11.19,0,25,0z"/>
<g>
	<g>
		<g>
			<path class="st1" d="M25,12.5h-2.08c-4.31,0-7.81,3.5-7.81,7.81v0.88l-2.54,4.6c-0.04,0.08-0.06,0.16-0.06,0.25
				c0,0.03,0,0.06,0,0.09c0.02,0.84,0.72,1.5,1.56,1.47c0.38,0.02,0.74,0.16,1.04,0.39v1.69c0,0.04,0,0.08,0,0.12
				c0.03,1.12,0.97,2,2.08,1.96h3.12c0.03,0,0.06,0,0.09,0c0.84-0.02,1.5-0.72,1.47-1.56v-3.12h-1.04v3.12c0,0.03,0,0.06,0,0.09
				c-0.03,0.26-0.26,0.45-0.52,0.43h-3.12c-0.04,0-0.08,0-0.12,0c-0.54-0.03-0.95-0.5-0.92-1.04v-1.94c0-0.15-0.06-0.29-0.18-0.39
				c-0.52-0.48-1.2-0.76-1.91-0.79c0,0,0,0-0.01,0c-0.25,0.03-0.48-0.16-0.5-0.41l2.53-4.58c0.04-0.08,0.06-0.16,0.06-0.25v-1.01
				c0-3.74,3.03-6.77,6.77-6.77h2.08c0.03,0,0.06,0,0.1,0c0.26,0.02,0.46,0.26,0.43,0.52v2.6h1.04v-2.6c0-0.03,0-0.06,0-0.09
				C26.54,13.14,25.84,12.48,25,12.5z"/>
		</g>
	</g>
	<g>
		<g>
			<path class="st1" d="M33.85,28.13h-5.73v1.04h5.73c0.03,0,0.06,0,0.09,0c0.26,0.03,0.45,0.26,0.43,0.52v0.98
				c-0.07,0.31-0.58,2.14-2.08,2.14c-0.29,0-0.52,0.23-0.52,0.52v3.12h-9.9V34.9h-1.04v2.08c0,0.29,0.23,0.52,0.52,0.52h10.94l0,0
				c0.29,0,0.52-0.23,0.52-0.52v-3.17c1.63-0.31,2.4-2.03,2.59-2.97c0.01-0.03,0.01-0.07,0.01-0.1v-1.04c0-0.03,0-0.06,0-0.09
				C35.39,28.76,34.69,28.1,33.85,28.13z"/>
		</g>
	</g>
	<g>
		<g>
			<path class="st1" d="M36.98,18.75h-1.31c-0.06-0.15-0.12-0.31-0.19-0.45l0.93-0.93c0.2-0.2,0.2-0.53,0-0.74l-1.47-1.47
				c-0.2-0.2-0.53-0.2-0.74,0l-0.93,0.93c-0.15-0.07-0.3-0.13-0.45-0.19v-1.31c0-0.29-0.23-0.52-0.52-0.52h-2.08
				c-0.29,0-0.52,0.23-0.52,0.52v1.31c-0.28,0.1-0.56,0.23-0.82,0.38l0.53,0.9c0.29-0.17,0.61-0.3,0.94-0.39
				c0.23-0.06,0.39-0.27,0.39-0.5V15.1h1.04v1.18c0,0.24,0.16,0.44,0.39,0.5c0.33,0.09,0.64,0.22,0.94,0.39
				c0.2,0.12,0.47,0.09,0.63-0.08l0.83-0.83L35.3,17l-0.83,0.83c-0.17,0.17-0.2,0.43-0.08,0.63c0.17,0.29,0.3,0.61,0.39,0.94
				c0.06,0.23,0.27,0.39,0.5,0.39h1.18v1.04h-1.18c-0.24,0-0.44,0.16-0.5,0.39c-0.09,0.33-0.22,0.64-0.39,0.94
				c-0.12,0.2-0.09,0.47,0.08,0.63l0.83,0.83l-0.74,0.74l-0.83-0.83c-0.17-0.17-0.43-0.2-0.63-0.08c-0.29,0.17-0.61,0.3-0.94,0.39
				c-0.23,0.06-0.39,0.27-0.39,0.5v1.18h-1.04v-1.18c0-0.24-0.16-0.44-0.39-0.5c-0.33-0.09-0.64-0.22-0.94-0.39
				c-0.2-0.12-0.47-0.09-0.63,0.08l-0.83,0.83l-0.74-0.74l0.83-0.83c0.17-0.17,0.2-0.43,0.08-0.63c-0.17-0.29-0.3-0.61-0.39-0.94
				c-0.06-0.23-0.27-0.39-0.5-0.39h-1.7v1.04h1.31c0.05,0.15,0.12,0.31,0.19,0.45l-0.93,0.93c-0.2,0.2-0.2,0.53,0,0.74l1.47,1.47
				c0.2,0.2,0.53,0.2,0.74,0l0.93-0.93c0.15,0.07,0.3,0.13,0.45,0.19v1.31c0,0.29,0.23,0.52,0.52,0.52h2.08l0,0
				c0.29,0,0.52-0.23,0.52-0.52v-1.31c0.15-0.06,0.31-0.12,0.45-0.19l0.93,0.93c0.2,0.2,0.53,0.2,0.74,0L36.41,24
				c0.2-0.2,0.2-0.53,0-0.74l-0.93-0.93c0.07-0.15,0.13-0.3,0.19-0.45h1.31c0.29,0,0.52-0.23,0.52-0.52v-2.08
				C37.5,18.98,37.27,18.75,36.98,18.75z"/>
		</g>
	</g>
	<g>
		<g>
			<path class="st1" d="M31.25,18.23c-1.15,0-2.08,0.93-2.08,2.08c0,1.15,0.93,2.08,2.08,2.08c1.15,0,2.08-0.93,2.08-2.08
				S32.4,18.23,31.25,18.23z M31.25,21.35c-0.58,0-1.04-0.47-1.04-1.04c0-0.58,0.47-1.04,1.04-1.04s1.04,0.47,1.04,1.04
				C32.29,20.89,31.83,21.35,31.25,21.35z"/>
		</g>
	</g>
	<g>
		<g>
			<path class="st1" d="M20.31,20.83v0.52h-1.56v-0.52h-1.04v0.52c0,0.01,0,0.03,0,0.04c0.01,0.56,0.48,1.01,1.04,1h1.56
				c0.01,0,0.03,0,0.04,0c0.56-0.01,1.01-0.48,1-1.04v-0.52H20.31z"/>
		</g>
	</g>
	<g>
		<g>
			<path class="st1" d="M27.08,27.08c-0.86,0-1.56,0.7-1.56,1.56s0.7,1.56,1.56,1.56s1.56-0.7,1.56-1.56S27.95,27.08,27.08,27.08z
				 M27.08,29.17c-0.29,0-0.52-0.23-0.52-0.52s0.23-0.52,0.52-0.52s0.52,0.23,0.52,0.52C27.6,28.93,27.37,29.17,27.08,29.17z"/>
		</g>
	</g>
	<g>
		<g>
			<path class="st1" d="M21.35,24.48c-0.86,0-1.56,0.7-1.56,1.56c0,0.86,0.7,1.56,1.56,1.56s1.56-0.7,1.56-1.56
				C22.92,25.18,22.22,24.48,21.35,24.48z M21.35,26.56c-0.29,0-0.52-0.23-0.52-0.52s0.23-0.52,0.52-0.52s0.52,0.23,0.52,0.52
				C21.88,26.33,21.64,26.56,21.35,26.56z"/>
		</g>
	</g>
	<g>
		<g>
			<path class="st1" d="M26.04,16.15c-0.86,0-1.56,0.7-1.56,1.56s0.7,1.56,1.56,1.56s1.56-0.7,1.56-1.56S26.9,16.15,26.04,16.15z
				 M26.04,18.23c-0.29,0-0.52-0.23-0.52-0.52s0.23-0.52,0.52-0.52s0.52,0.23,0.52,0.52S26.33,18.23,26.04,18.23z"/>
		</g>
	</g>
	<g>
		<g>
			<rect x="23.44" y="20.83" class="st1" width="1.04" height="1.04"/>
		</g>
	</g>
	<g>
		<g>
			<rect x="23.44" y="22.92" class="st1" width="1.04" height="1.04"/>
		</g>
	</g>
	<g>
		<g>
			<rect x="20.83" y="32.81" class="st1" width="1.04" height="1.04"/>
		</g>
	</g>
</g>
</svg>
